1 999999 525
1 10 20
10 1 20
100 200 125
201 210 89
900 1000 174
1 1 1
5 5 6
469079 481571 413
151807 367284 443
439380 373670 449
222032 178855 386
489172 309449 449
488069 403762 449
304413 158292 443
274459 167970 443
356118 139926 443
285530 337338 389
253736 315275 407
204347 72567 383
21991 207799 383
494041 160342 449
83293 133730 354
333667 455227 449
158010 220916 386
355233 313360 441
77707 13270 351
246835 36666 443
498053 174397 449
63913 51267 340
94982 265118 443
387281 70634 443
360735 155854 443
349050 52466 443
239295 100854 443
484881 380429 449
234002 452285 449
206076 450732 449
93611 346089 443
58412 271465 443
251697 468687 449
233022 377047 441
30942 321373 443
190939 460926 449
111077 498304 449
103502 280548 443
296334 37092 443
407688 176156 443
133318 397525 443
463881 169359 449
332386 202172 443
194812 227135 386
321369 126726 443
493746 19320 449
186089 485614 449
464781 307435 449
78189 185535 383
314956 68100 443
157059 460002 449
145173 190592 383
38830 371223 443
99961 425778 449
221345 431719 449
207919 120020 383
163198 170599 352
487565 121595 449
130573 180410 383
307332 114170 443
389075 315301 441
242691 475587 449
323539 125391 443
411743 402121 449
39556 192099 383
490153 214979 449
173581 42022 383
266448 397654 441
217648 227660 368
346709 384139 423
368109 416526 449
362196 358307 410
482891 458291 444
175471 281153 443
476864 472586 382
87521 79463 333
231193 127594 443
391469 153142 443
35504 430244 449
14538 119647 354
163365 143365 383
89633 352081 443
486769 85913 449
281653 327023 389
143277 265775 443
349246 266932 441
346533 55920 443
488477 258948 449
443066 345357 449
50868 447296 449
285782 3241 443
229758 37927 386
198408 29682 383
49391 51140 296
389783 106060 443
61275 414459 449
375352 152471 443
427932 387857 449
396067 109720 443
203218 451473 449
4314 4829 215
1078 1334 182
2908 4736 238
2708 3549 217
1363 95 182
1353 2047 180
1652 1421 172
3603 296 217
4120 1435 238
875 914 148
2233 1524 183
372 1665 182
4599 2929 238
4935 2874 238
4982 3577 238
1180 4918 238
2921 4598 238
3950 2883 238
4503 1351 238
3029 2123 217
3283 72 217
989 964 143
2695 265 209
3607 775 217
779 549 171
2018 802 182
3400 3655 194
4249 557 238
4425 4886 197
2466 1058 209
1476 1370 172
3025 954 217
2927 4603 238
2161 1806 175
2370 497 183
863 2091 182
3015 1005 217
2380 3878 238
2082 2915 209
1533 3484 217
960 1847 182
697 4271 238
2182 3892 238
3098 2516 217
2660 4344 238
3810 3182 238
72 294 128
151 602 144
200 1516 182
836 4903 238
3398 1195 217
4654 2431 238
3854 1709 238
1189 405 182
4499 385 238
4278 3595 238
2720 3204 217
1211 4824 238
4006 2393 238
1289 3865 238
4110 1679 238
3717 3230 238
1795 3326 217
1038 1313 182
218 826 171
620 3158 217
2196 4456 238
1749 1017 182
3666 2535 217
4087 817 238
1550 4126 238
4206 1718 238
1884 475 182
2663 1698 209
3655 3830 238
2618 791 209
1579 4358 238
4214 1309 238
998 3229 217
724 4778 238
3393 748 217
3811 2359 238
2125 757 182
1617 1065 182
1227 4636 238
3745 585 238
2599 4298 238
4277 2292 238
2521 3446 217
4502 2751 238
2340 4582 238
4297 4491 215
4218 2963 238
3758 2154 238
2523 4118 238
4323 4565 215
752 1594 182
2856 1680 209
1818 1644 180
3881 735 238
