706034 480904 509
671783 156738 509
334481 218230 443
510752 313515 449
776409 30248 509
314062 604147 470
289250 984047 525
872488 836656 525
175654 992201 525
222366 305064 443
342736 108102 443
429140 293957 449
979068 860600 507
289475 743656 509
759190 636318 504
68882 448392 449
405096 68066 443
528981 272849 470
121093 913327 525
261277 590304 470
777879 737685 468
788901 622995 509
378128 162820 443
409897 406836 343
935072 114664 525
432686 160478 449
607251 905025 525
735308 86670 509
662503 82808 509
405150 342881 441
861258 753148 525
723582 617817 509
575512 203678 470
184911 500494 449
454075 590526 470
385568 750208 509
273814 540360 470
511191 741121 509
363994 889927 525
240661 599846 470
197926 52724 383
570038 136953 470
367786 994920 525
643362 685956 442
501279 664150 509
904668 305046 525
227416 874219 525
515774 218684 470
394474 833486 509
976093 863727 507
419161 753068 509
324586 11102 443
652545 924025 525
262001 277815 407
916590 896011 476
892993 644554 525
658941 75240 509
10074 196556 383
737784 631210 504
471008 426022 444
946247 421227 525
974560 900939 507
543430 75261 470
700163 390091 509
948669 768072 525
780809 748950 468
749314 795502 468
550738 257063 470
585212 301058 470
70091 452495 449
519553 823786 509
800916 588209 509
303501 463528 449
296556 883856 525
98595 68525 351
93527 274151 443
649917 4942 509
930890 587684 525
693060 271627 509
480337 626971 509
893912 193832 525
428905 350866 449
107175 562023 470
246469 290566 407
89290 940242 525
676473 869168 525
274311 646225 509
74165 590630 470
391078 864308 525
835559 771784 468
215159 972391 525
769361 177940 509
918664 709565 525
653903 659077 429
407539 991796 525
149588 705086 509
657341 41458 509
397958 891408 525
820241 311406 509
34479 468866 449
295411 236177 407
365204 531612 470
26455 968869 525
391544 899360 525
580580 171693 470
661496 359401 509
626760 738793 504
260789 814001 509
926102 343866 525
119335 884037 525
983180 751726 525
593741 41902 470
633293 304154 509
101830 323545 443
938647 345136 525
345123 60925 443
997188 935341 507
991893 771543 525
966216 750711 525
773434 20144 509
60689 251574 443
877958 354858 525
40679 381492 443
791797 380627 509
417962 948063 525
888266 751509 525
610769 611901 354
200548 415626 449
359977 440360 449
232820 271000 407
914489 594781 525
506701 233274 449
944341 53635 525
780138 296734 509
26989 741802 509
338510 466479 449
795236 106543 509
626324 540570 452
212685 182002 373
130577 840882 525
474270 633133 509
208887 179961 373
679396 392495 509
99290 258373 443
970147 930408 507
60163 551625 470
618611 93757 470
983386 933281 507
936614 889775 476
522162 599744 452
976259 478577 525
337981 906778 525
465375 9381 449
704359 26647 509
513582 166201 470
632002 116901 509
138845 624327 470
266982 346130 441
425266 247834 449
591029 374685 470
881717 885115 370
904190 770781 525
884087 386480 525
262506 757773 509
423932 310321 449
777088 732892 468
711271 9956 509
16755 410092 449
538175 638318 509
396902 785873 509
711061 56343 509
397245 454954 449
673416 894580 525
803514 195135 509
862728 369694 525
545878 976529 525
863174 995191 507
602848 705995 509
776576 580804 509
126163 166207 383
772856 447401 509
881741 843707 432
953188 391900 525
239590 313770 407
307009 54060 443
37000 752798 509
899314 561319 525
632178 151731 509
243816 210115 443
458767 952013 525
878284 202290 525
305485 710342 509
151898 673645 509
669736 916516 525
890412 633519 525
682847 538161 509
961416 400961 525
825755 508040 509
241406 558251 470
519121 227415 470
